{
    "page" : 1,
    "total_results" : 19756,
    "total_pages" : 988,
    "results" : [
        {
            "id" : 384018,
            "vote_average" : 6.5,
            "genre_ids" : [
                28
            ],
            "original_title" : "Fast & Furious Presents: Hobbs & Shaw",
            "backdrop_path" : "\/hpgda6P9GutvdkDX5MUJ92QG9aj.jpg",
            "adult" : false,
            "popularity" : 388.39800000000002,
            "poster_path" : "\/keym7MPn1icW1wWfzMnW3HeuzWU.jpg",
            "title" : "Fast & Furious Presents: Hobbs & Shaw",
            "overview" : "A spinoff of The Fate of the Furious, focusing on Johnson's US Diplomatic Security Agent Luke Hobbs forming an unlikely alliance with Statham's Deckard Shaw.",
            "original_language" : "en",
            "vote_count" : 610,
            "release_date" : "2019-08-01",
            "video" : false
        },
        {
            "id" : 420818,
            "vote_average" : 7.0999999999999996,
            "genre_ids" : [
                12,
                16,
                10751,
                18,
                28
            ],
            "original_title" : "The Lion King",
            "backdrop_path" : "\/1TUg5pO1VZ4B0Q1amk3OlXvlpXV.jpg",
            "adult" : false,
            "popularity" : 377.57299999999998,
            "poster_path" : "\/2bXbqYdUdNVa8VIWXVfclP2ICtT.jpg",
            "title" : "The Lion King",
            "overview" : "Simba idolises his father, King Mufasa, and takes to heart his own royal destiny. But not everyone in the kingdom celebrates the new cub's arrival. Scar, Mufasa's brother—and former heir to the throne—has plans of his own. The battle for Pride Rock is ravaged with betrayal, tragedy and drama, ultimately resulting in Simba's exile. With help from a curious pair of newfound friends, Simba will have to figure out how to grow up and take back what is rightfully his.",
            "original_language" : "en",
            "vote_count" : 1781,
            "release_date" : "2019-07-12",
            "video" : false
        },
        {
            "id" : 429203,
            "vote_average" : 6.4000000000000004,
            "genre_ids" : [
                35,
                80,
                18
            ],
            "original_title" : "The Old Man & the Gun",
            "backdrop_path" : "\/8bRIfPGDnmWgdy65LO8xtdcFmFP.jpg",
            "adult" : false,
            "popularity" : 248.72499999999999,
            "poster_path" : "\/a4BfxRK8dBgbQqbRxPs8kmLd8LG.jpg",
            "title" : "The Old Man & the Gun",
            "overview" : "The true story of Forrest Tucker, from his audacious escape from San Quentin at the age of 70 to an unprecedented string of heists that confounded authorities and enchanted the public.  Wrapped up in the pursuit are a detective, who becomes captivated with Forrest’s commitment to his craft, and a woman, fullmazahd.in who loves him in spite of his chosen profession.",
            "original_language" : "en",
            "vote_count" : 379,
            "release_date" : "2018-09-27",
            "video" : false
        },
        {
            "id" : 458156,
            "vote_average" : 7.0999999999999996,
            "genre_ids" : [
                80,
                28,
                53
            ],
            "original_title" : "John Wick: Chapter 3 – Parabellum",
            "backdrop_path" : "\/vVpEOvdxVBP2aV166j5Xlvb5Cdc.jpg",
            "adult" : false,
            "popularity" : 201.03700000000001,
            "poster_path" : "\/ziEuG1essDuWuC5lpWUaw1uXY2O.jpg",
            "title" : "John Wick: Chapter 3 – Parabellum",
            "overview" : "Super-assassin John Wick returns with a $14 million price tag on his head and an army of bounty-hunting killers on his trail. After killing a member of the shadowy international assassin’s guild, the High Table, John Wick is excommunicado, but the world’s most ruthless hit men and women await his every turn.",
            "original_language" : "en",
            "vote_count" : 1875,
            "release_date" : "2019-05-15",
            "video" : false
        },
        {
            "id" : 420817,
            "vote_average" : 7.0999999999999996,
            "genre_ids" : [
                12,
                14,
                10749,
                35,
                10751
            ],
            "original_title" : "Aladdin",
            "backdrop_path" : "\/v4yVTbbl8dE1UP2dWu5CLyaXOku.jpg",
            "adult" : false,
            "popularity" : 180.93799999999999,
            "poster_path" : "\/yYWGCAerbVAHyfuGBCHKzWJdEtj.jpg",
            "title" : "Aladdin",
            "overview" : "A kindhearted street urchin named Aladdin embarks on a magical adventure after finding a lamp that releases a wisecracking genie while a power-hungry Grand Vizier vies for the same lamp that has the power to make their deepest wishes come true.",
            "original_language" : "en",
            "vote_count" : 2660,
            "release_date" : "2019-05-22",
            "video" : false
        },
        {
            "id" : 429617,
            "vote_average" : 7.7999999999999998,
            "genre_ids" : [
                28,
                12,
                878
            ],
            "original_title" : "Spider-Man: Far from Home",
            "backdrop_path" : "\/dihW2yTsvQlust7mSuAqJDtqW7k.jpg",
            "adult" : false,
            "popularity" : 175.19200000000001,
            "poster_path" : "\/rjbNpRMoVvqHmhmksbokcyCr7wn.jpg",
            "title" : "Spider-Man: Far from Home",
            "overview" : "Peter Parker and his friends go on a summer trip to Europe. However, they will hardly be able to rest - Peter will have to agree to help Nick Fury uncover the mystery of creatures that cause natural disasters and destruction throughout the continent.",
            "original_language" : "en",
            "vote_count" : 3002,
            "release_date" : "2019-06-28",
            "video" : false
        },
        {
            "id" : 566555,
            "vote_average" : 5.0999999999999996,
            "genre_ids" : [
                16,
                28,
                18,
                9648,
                35
            ],
            "original_title" : "名探偵コナン 紺青の拳（フィスト）",
            "backdrop_path" : "\/wf6VDSi4aFCZfuD8sX8JAKLfJ5m.jpg",
            "adult" : false,
            "popularity" : 172.05099999999999,
            "poster_path" : "\/86Y6qM8zTn3PFVfCm9J98Ph7JEB.jpg",
            "title" : "Detective Conan: The Fist of Blue Sapphire",
            "overview" : "23rd movie in the \"Detective Conan\" franchise.",
            "original_language" : "ja",
            "vote_count" : 41,
            "release_date" : "2019-04-12",
            "video" : false
        },
        {
            "id" : 466272,
            "vote_average" : 7.5999999999999996,
            "genre_ids" : [
                18,
                35,
                28,
                80,
                37
            ],
            "original_title" : "Once Upon a Time in Hollywood",
            "backdrop_path" : "\/b82nVVhYNRgtsTFV1jkdDwe6LJZ.jpg",
            "adult" : false,
            "popularity" : 149.059,
            "poster_path" : "\/8j58iEBw9pOXFD2L0nt0ZXeHviB.jpg",
            "title" : "Once Upon a Time in Hollywood",
            "overview" : "A faded television actor and his stunt double strive to achieve fame and success in the film industry during the final years of Hollywood's Golden Age in 1969 Los Angeles.",
            "original_language" : "en",
            "vote_count" : 323,
            "release_date" : "2019-07-25",
            "video" : false
        },
        {
            "id" : 448358,
            "vote_average" : 5.7000000000000002,
            "genre_ids" : [
                53,
                18
            ],
            "original_title" : "Darker Shades of Elise",
            "backdrop_path" : "\/nP7UzNsrthb6ZsGvsuphG7Rw9Nn.jpg",
            "adult" : false,
            "popularity" : 132.471,
            "poster_path" : "\/nQT6uDIqn7dQVPdxTyuwKqYdvfR.jpg",
            "title" : "Darker Shades of Elise",
            "overview" : "Elise's life takes a sharp turn for the worst when she meets a mysterious and alluring stranger who has more than friendship on his mind - A tale of love, fantasy and obsession.",
            "original_language" : "en",
            "vote_count" : 7,
            "release_date" : "2017-07-10",
            "video" : false
        },
        {
            "id" : 299534,
            "vote_average" : 8.4000000000000004,
            "genre_ids" : [
                12,
                878,
                28
            ],
            "original_title" : "Avengers: Endgame",
            "backdrop_path" : "\/7RyHsO4yDXtBv1zUU3mTpHeQ0d5.jpg",
            "adult" : false,
            "popularity" : 130.738,
            "poster_path" : "\/or06FN3Dka5tukK1e9sl16pB3iy.jpg",
            "title" : "Avengers: Endgame",
            "overview" : "After the devastating events of Avengers: Infinity War, the universe is in ruins due to the efforts of the Mad Titan, Thanos. With the help of remaining allies, the Avengers must assemble once more in order to undo Thanos' actions and restore order to the universe once and for all, no matter what consequences may be in store.",
            "original_language" : "en",
            "vote_count" : 8725,
            "release_date" : "2019-04-24",
            "video" : false
        },
        {
            "id" : 486589,
            "vote_average" : 5.4000000000000004,
            "genre_ids" : [
                16,
                10749
            ],
            "original_title" : "Red Shoes and the Seven Dwarfs",
            "backdrop_path" : "\/bga3i5jcejBekr2FCGJga1fYCh.jpg",
            "adult" : false,
            "popularity" : 126.005,
            "poster_path" : "\/MBiKqTsouYqAACLYNDadsjhhC0.jpg",
            "title" : "Red Shoes and the Seven Dwarfs",
            "overview" : "Princes who have been turned into Dwarfs seek the red shoes of a lady in order to break the spell, although it will not be easy.",
            "original_language" : "en",
            "vote_count" : 13,
            "release_date" : "2019-07-25",
            "video" : false
        },
        {
            "id" : 373571,
            "vote_average" : 6.2000000000000002,
            "genre_ids" : [
                878,
                28
            ],
            "original_title" : "Godzilla: King of the Monsters",
            "backdrop_path" : "\/uovH5k4BAEPqXqxgwVrTtqH169g.jpg",
            "adult" : false,
            "popularity" : 123.372,
            "poster_path" : "\/pU3bnutJU91u3b4IeRPQTOP8jhV.jpg",
            "title" : "Godzilla: King of the Monsters",
            "overview" : "Follows the heroic efforts of the crypto-zoological agency Monarch as its members face off against a battery of god-sized monsters, including the mighty Godzilla, who collides with Mothra, Rodan, and his ultimate nemesis, the three-headed King Ghidorah. When these ancient super-species - thought to be mere myths - rise again, they all vie for supremacy, leaving humanity's very existence hanging in the balance.",
            "original_language" : "en",
            "vote_count" : 968,
            "release_date" : "2019-05-29",
            "video" : false
        },
        {
            "id" : 920,
            "vote_average" : 6.7000000000000002,
            "genre_ids" : [
                16,
                12,
                35,
                10751
            ],
            "original_title" : "Cars",
            "backdrop_path" : "\/a1MlbLBk5Sy6YvMbSuKfwGlDVlb.jpg",
            "adult" : false,
            "popularity" : 119.059,
            "poster_path" : "\/jpfkzbIXgKZqCZAkEkFH2VYF63s.jpg",
            "title" : "Cars",
            "overview" : "Lightning McQueen, a hotshot rookie race car driven to succeed, discovers that life is about the journey, not the finish line, when he finds himself unexpectedly detoured in the sleepy Route 66 town of Radiator Springs. On route across the country to the big Piston Cup Championship in California to compete against two seasoned pros, McQueen gets to know the town's offbeat characters.",
            "original_language" : "en",
            "vote_count" : 7870,
            "release_date" : "2006-06-08",
            "video" : false
        },
        {
            "id" : 506574,
            "vote_average" : 8.0999999999999996,
            "genre_ids" : [
                12,
                10751,
                10402
            ],
            "original_title" : "Descendants 3",
            "backdrop_path" : "\/gzdxeOiO76hDoOSKYCxegj7bk4T.jpg",
            "adult" : false,
            "popularity" : 111.69199999999999,
            "poster_path" : "\/7IRy0iHdaS0JI3ng4ZYlk5gLSFn.jpg",
            "title" : "Descendants 3",
            "overview" : "The teenagers of Disney's most infamous villains return to the Isle of the Lost to recruit a new batch of villainous offspring to join them at Auradon Prep.",
            "original_language" : "en",
            "vote_count" : 147,
            "release_date" : "2019-08-09",
            "video" : false
        },
        {
            "id" : 454640,
            "vote_average" : 6.2999999999999998,
            "genre_ids" : [
                16,
                35,
                28,
                12,
                10751
            ],
            "original_title" : "The Angry Birds Movie 2",
            "backdrop_path" : "\/k7sE3loFwuU2mqf7FbZBeE3rjBa.jpg",
            "adult" : false,
            "popularity" : 110.483,
            "poster_path" : "\/ebe8hJRCwdflNQbUjRrfmqtUiNi.jpg",
            "title" : "The Angry Birds Movie 2",
            "overview" : "Red, Chuck, Bomb and the rest of their feathered friends are surprised when a green pig suggests that they put aside their differences and unite to fight a common threat. Aggressive birds from an island covered in ice are planning to use an elaborate weapon to destroy the fowl and swine.",
            "original_language" : "en",
            "vote_count" : 40,
            "release_date" : "2019-08-02",
            "video" : false
        },
        {
            "id" : 449562,
            "vote_average" : 6.0999999999999996,
            "genre_ids" : [
                35
            ],
            "original_title" : "The Hustle",
            "backdrop_path" : "\/s6awXOxTKYQLSktiIJfI3969dZH.jpg",
            "adult" : false,
            "popularity" : 98.323999999999998,
            "poster_path" : "\/hHAD7cx1j2RAyjwREVgJeLcLVoi.jpg",
            "title" : "The Hustle",
            "overview" : "Two female scam artists, one low rent and the other high class, compete to swindle a naïve tech prodigy out of his fortune. A remake of the 1988 comedy \"Dirty Rotten Scoundrels.\"",
            "original_language" : "en",
            "vote_count" : 383,
            "release_date" : "2019-05-09",
            "video" : false
        },
        {
            "id" : 531309,
            "vote_average" : 5.7999999999999998,
            "genre_ids" : [
                27,
                878,
                53
            ],
            "original_title" : "Brightburn",
            "backdrop_path" : "\/uHEI6v8ApQusjbaRZ8o7WcLYeWb.jpg",
            "adult" : false,
            "popularity" : 95.177000000000007,
            "poster_path" : "\/sJWwkYc9ajwnPRSkqj8Aue5JbKz.jpg",
            "title" : "Brightburn",
            "overview" : "What if a child from another world crash-landed on Earth, but instead of becoming a hero to mankind, he proved to be something far more sinister?",
            "original_language" : "en",
            "vote_count" : 562,
            "release_date" : "2019-05-09",
            "video" : false
        },
        {
            "id" : 499701,
            "vote_average" : 6.2999999999999998,
            "genre_ids" : [
                12,
                35,
                10751
            ],
            "original_title" : "Dora and the Lost City of Gold",
            "backdrop_path" : "\/843PwG97xLcz7TUW8tKDNrOc2sj.jpg",
            "adult" : false,
            "popularity" : 86.343000000000004,
            "poster_path" : "\/xvYCZ740XvngXK0FNeSNVTJJJ5v.jpg",
            "title" : "Dora and the Lost City of Gold",
            "overview" : "Dora, a girl who has spent most of her life exploring the jungle with her parents, now must navigate her most dangerous adventure yet: high school. Always the explorer, Dora quickly finds herself leading Boots (her best friend, a monkey), Diego, and a rag tag group of teens on an adventure to save her parents and solve the impossible mystery behind a lost Inca civilization.",
            "original_language" : "en",
            "vote_count" : 32,
            "release_date" : "2019-08-08",
            "video" : false
        },
        {
            "id" : 571627,
            "vote_average" : 2.7999999999999998,
            "genre_ids" : [
                28,
                27,
                9648
            ],
            "original_title" : "사자",
            "backdrop_path" : "\/4MDYpCwqSVO5RcTiZ4GEfePzDdl.jpg",
            "adult" : false,
            "popularity" : 84.215000000000003,
            "poster_path" : "\/9Z2qT9iZYLzzsCSYu7A4SEQsKX0.jpg",
            "title" : "The Divine Fury",
            "overview" : "Yong-hu, a world champion martial artist who believes in no God, only himself, suddenly develops stigmata on his palms. Visiting a church in hopes of healing the stigmata, he ends up saving Father Ahn, who falls into danger while performing an exorcism. In this way he learns of the power of the stigmata. As time passes Yong-hu accepts his new calling and begins saving people who are possessed by demons, but then he must prepare for a final confrontation with the evil Jisin, who ensnares people with the power of the devil.",
            "original_language" : "ko",
            "vote_count" : 15,
            "release_date" : "2019-07-31",
            "video" : false
        },
        {
            "id" : 452832,
            "vote_average" : 5.2000000000000002,
            "genre_ids" : [
                53,
                9648
            ],
            "original_title" : "Serenity",
            "backdrop_path" : "\/oOROXoQ402tHgK6NowmMUSLffkW.jpg",
            "adult" : false,
            "popularity" : 83.665999999999997,
            "poster_path" : "\/hgWAcic93phg4DOuQ8NrsgQWiqu.jpg",
            "title" : "Serenity",
            "overview" : "Baker Dill is a fishing boat captain leading tours off a tranquil, tropical enclave called Plymouth Island. His quiet life is shattered, however, when his ex-wife Karen tracks him down with a desperate plea for help.",
            "original_language" : "en",
            "vote_count" : 469,
            "release_date" : "2019-01-24",
            "video" : false
        }
    ]
}
